﻿{
  "dependencies": {
    "Microsoft.NETCore.UniversalWindowsPlatform": "5.1.0",
    "Xam.Plugins.Forms.ImageCircle": "1.8.1",
    "Xamarin.Forms": "2.3.3.180"
  },
  "frameworks": {
    "uap10.0": {}
  },
  "runtimes": {
    "win10-arm": {},
    "win10-arm-aot": {},
    "win10-x86": {},
    "win10-x86-aot": {},
    "win10-x64": {},
    "win10-x64-aot": {}
  }
}